{
    "name": "DragonRise Inc.   Generic   USB  Joystick  ",
    "TAKEOFF": 7,
    "LAND": 6,
    "TAKE_PICTURE": 5,
    "TAKE_VIDEO": 4,
    "FORWARD": 0,
    "BACKWARD": 2,
    "LEFT": 3,
    "RIGHT": 1,
    "UP": -1,
    "DOWN": -1,
    "ROTATE_LEFT": -1,
    "ROTATE_RIGHT": -1,
    "LEFT_X": 2,
    "LEFT_X_REVERSE": 1.0,
    "LEFT_Y": 1,
    "LEFT_Y_REVERSE": -1.0,
    "RIGHT_X": 3,
    "RIGHT_X_REVERSE": 1.0,
    "RIGHT_Y": 4,
    "RIGHT_Y_REVERSE": -1.0,
    "DEADZONE": 0.2
}